#! /usr/local/iverilog/bin/vvp
:ivl_version "11.0 (devel)" "(s20150603-642-g3bdb50da)";
:ivl_delay_selection "TYPICAL";
:vpi_time_precision + 0;
:vpi_module "system";
:vpi_module "vhdl_sys";
:vpi_module "vhdl_textio";
:vpi_module "v2005_math";
:vpi_module "va_math";
S_0000000000cfcc90 .scope module, "bit_counter" "bit_counter" 2 1;
 .timescale 0 0;
    .port_info 0 /INPUT 8 "Data";
    .port_info 1 /INPUT 1 "S";
    .port_info 2 /INPUT 1 "CLK";
    .port_info 3 /INPUT 1 "RST";
    .port_info 4 /OUTPUT 1 "Done";
    .port_info 5 /OUTPUT 1 "B";
P_0000000000b12720 .param/l "s0" 0 2 10, C4<00>;
P_0000000000b12758 .param/l "s1" 0 2 11, C4<01>;
P_0000000000b12790 .param/l "s2" 0 2 12, C4<10>;
v0000000000b127d0_0 .var "A", 7 0;
v0000000000b12870_0 .var "B", 0 0;
o0000000000b47038 .functor BUFZ 1, C4<z>; HiZ drive
v0000000000b12910_0 .net "CLK", 0 0, o0000000000b47038;  0 drivers
o0000000000b47068 .functor BUFZ 8, C4<zzzzzzzz>; HiZ drive
v0000000000b129b0_0 .net "Data", 7 0, o0000000000b47068;  0 drivers
v0000000000b12a50_0 .var "Done", 0 0;
o0000000000b470c8 .functor BUFZ 1, C4<z>; HiZ drive
v0000000000b89c40_0 .net "RST", 0 0, o0000000000b470c8;  0 drivers
o0000000000b470f8 .functor BUFZ 1, C4<z>; HiZ drive
v0000000000b89ce0_0 .net "S", 0 0, o0000000000b470f8;  0 drivers
v0000000000b89d80_0 .var "state", 1 0;
E_0000000000cfc9d0/0 .event negedge, v0000000000b89c40_0;
E_0000000000cfc9d0/1 .event posedge, v0000000000b12910_0;
E_0000000000cfc9d0 .event/or E_0000000000cfc9d0/0, E_0000000000cfc9d0/1;
    .scope S_0000000000cfcc90;
T_0 ;
    %wait E_0000000000cfc9d0;
    %load/vec4 v0000000000b89c40_0;
    %nor/r;
    %flag_set/vec4 8;
    %jmp/0xz  T_0.0, 8;
    %pushi/vec4 0, 0, 2;
    %assign/vec4 v0000000000b89d80_0, 0;
T_0.0 ;
    %load/vec4 v0000000000b89d80_0;
    %dup/vec4;
    %pushi/vec4 0, 0, 2;
    %cmp/u;
    %jmp/1 T_0.2, 6;
    %dup/vec4;
    %pushi/vec4 1, 0, 2;
    %cmp/u;
    %jmp/1 T_0.3, 6;
    %dup/vec4;
    %pushi/vec4 2, 0, 2;
    %cmp/u;
    %jmp/1 T_0.4, 6;
    %jmp T_0.5;
T_0.2 ;
    %pushi/vec4 0, 0, 8;
    %store/vec4 v0000000000b127d0_0, 0, 8;
    %pushi/vec4 0, 0, 1;
    %store/vec4 v0000000000b12870_0, 0, 1;
    %load/vec4 v0000000000b89ce0_0;
    %cmpi/e 0, 0, 1;
    %jmp/0xz  T_0.6, 4;
    %load/vec4 v0000000000b129b0_0;
    %assign/vec4 v0000000000b127d0_0, 0;
T_0.6 ;
    %load/vec4 v0000000000b129b0_0;
    %assign/vec4 v0000000000b127d0_0, 0;
    %load/vec4 v0000000000b89ce0_0;
    %cmpi/e 1, 0, 1;
    %jmp/0xz  T_0.8, 4;
    %pushi/vec4 1, 0, 2;
    %store/vec4 v0000000000b89d80_0, 0, 2;
T_0.8 ;
    %jmp T_0.5;
T_0.3 ;
    %load/vec4 v0000000000b127d0_0;
    %parti/s 1, 0, 2;
    %cmpi/e 1, 0, 1;
    %jmp/0xz  T_0.10, 4;
    %load/vec4 v0000000000b12870_0;
    %pad/u 2;
    %addi 1, 0, 2;
    %pad/u 1;
    %store/vec4 v0000000000b12870_0, 0, 1;
T_0.10 ;
    %load/vec4 v0000000000b127d0_0;
    %ix/load 4, 1, 0;
    %flag_set/imm 4, 0;
    %shiftr 4;
    %store/vec4 v0000000000b127d0_0, 0, 8;
    %load/vec4 v0000000000b127d0_0;
    %cmpi/e 0, 0, 8;
    %jmp/0xz  T_0.12, 4;
    %pushi/vec4 2, 0, 2;
    %store/vec4 v0000000000b89d80_0, 0, 2;
T_0.12 ;
    %jmp T_0.5;
T_0.4 ;
    %load/vec4 v0000000000b89ce0_0;
    %pad/u 32;
    %cmpi/e 0, 0, 32;
    %jmp/0xz  T_0.14, 4;
    %pushi/vec4 0, 0, 2;
    %store/vec4 v0000000000b89d80_0, 0, 2;
T_0.14 ;
    %pushi/vec4 1, 0, 1;
    %store/vec4 v0000000000b12a50_0, 0, 1;
    %jmp T_0.5;
T_0.5 ;
    %pop/vec4 1;
    %jmp T_0;
    .thread T_0;
# The file index is used to find the file name in the following table.
:file_names 3;
    "N/A";
    "<interactive>";
    "bit_counter.v";
