$date
	Wed Jul 08 16:30:56 2020
$end
$version
	Icarus Verilog
$end
$timescale
	1ns
$end
$scope module bit_tb $end
$var wire 1 ! CU $end
$var wire 1 " CO $end
$var wire 4 # A [3:0] $end
$var reg 1 $ CLK $end
$var reg 1 % Count $end
$var reg 4 & IN [3:0] $end
$var reg 1 ' Load $end
$var reg 1 ( clr $end
$scope module uut $end
$var wire 1 $ CLK $end
$var wire 1 " CO $end
$var wire 1 ! CU $end
$var wire 1 % Count $end
$var wire 4 ) IN [3:0] $end
$var wire 1 ' Load $end
$var wire 1 ( clr $end
$var reg 4 * A [3:0] $end
$upscope $end
$upscope $end
$enddefinitions $end
#0
$dumpvars
b0 *
bx )
1(
x'
bx &
x%
0$
b0 #
0"
x!
$end
#50
1$
#100
0!
0$
b0 &
b0 )
1'
0(
#150
b1 #
b1 *
1$
1%
0'
#200
0$
#250
b10 #
b10 *
1$
#300
0$
#350
b11 #
b11 *
1$
#400
0$
#450
b100 #
b100 *
1$
#500
0$
#550
b101 #
b101 *
1$
#600
0$
#650
b110 #
b110 *
1$
#700
0$
#750
b111 #
b111 *
1$
#800
0$
#850
b1000 #
b1000 *
1$
#900
0$
#950
b1001 #
b1001 *
1$
#1000
0$
#1050
b1010 #
b1010 *
1$
#1100
0$
#1150
b1011 #
b1011 *
1$
#1200
0$
#1250
b1100 #
b1100 *
1$
#1300
0$
#1350
b1101 #
b1101 *
1$
#1400
0$
#1450
b1110 #
b1110 *
1$
#1500
0$
#1550
1"
b1111 #
b1111 *
1$
#1600
0$
#1650
0"
b0 #
b0 *
1$
#1700
0$
#1750
b1 #
b1 *
1$
#1800
0$
#1850
b10 #
b10 *
1$
#1900
0$
#1950
b11 #
b11 *
1$
#2000
0$
#2050
b100 #
b100 *
1$
#2100
0$
#2150
b11 #
b11 *
1$
0%
#2200
0$
#2250
b10 #
b10 *
1$
#2300
0$
#2350
b1 #
b1 *
1$
#2400
0$
#2450
1!
b0 #
b0 *
1$
#2500
0$
#2550
0!
b1111 #
b1111 *
1$
#2600
0$
#2650
b1110 #
b1110 *
1$
#2700
0$
#2750
b1101 #
b1101 *
1$
#2800
0$
#2850
b1100 #
b1100 *
1$
#2900
0$
#2950
b1011 #
b1011 *
1$
#3000
0$
#3050
b1010 #
b1010 *
1$
#3100
0$
#3150
b1001 #
b1001 *
1$
#3200
0$
#3250
b1000 #
b1000 *
1$
#3300
0$
#3350
b111 #
b111 *
1$
#3400
0$
#3450
b110 #
b110 *
1$
#3500
0$
#3550
b101 #
b101 *
1$
#3600
0$
#3650
b100 #
b100 *
1$
#3700
0$
#3750
b11 #
b11 *
1$
#3800
0$
#3850
b10 #
b10 *
1$
#3900
0$
#3950
b1 #
b1 *
1$
#4000
0$
#4050
1!
b0 #
b0 *
1$
#4100
0$
#4150
0!
b1111 #
b1111 *
1$
#4200
0$
#4250
b1110 #
b1110 *
1$
#4300
0$
#4350
b1101 #
b1101 *
1$
#4400
0$
#4450
b1100 #
b1100 *
1$
#4500
0$
#4550
b1011 #
b1011 *
1$
#4600
0$
#4650
b110 #
b110 *
1$
b110 &
b110 )
1'
#4700
0$
#4750
b101 #
b101 *
1$
0'
