$date
	Wed May 27 15:32:33 2020
$end
$version
	Icarus Verilog
$end
$timescale
	1ns
$end
$scope module Decoder_2_to_4_tb $end
$var wire 4 ! D [3:0] $end
$var reg 1 " A0 $end
$var reg 1 # A1 $end
$var reg 1 $ clk $end
$scope module uut $end
$var wire 1 " A0 $end
$var wire 1 # A1 $end
$var reg 4 % D [3:0] $end
$upscope $end
$upscope $end
$enddefinitions $end
#0
$dumpvars
b1 %
x$
0#
0"
b1 !
$end
#50
1$
#100
b10 !
b10 %
0$
1"
#150
1$
#200
b100 !
b100 %
0$
0"
1#
#250
1$
#300
b1000 !
b1000 %
0$
1"
#350
1$
#400
0$
#450
1$
#500
0$
#550
1$
#600
0$
